{
  "id": "block",
  "type": "meta",
  "classes": [],
  "tags": [
    "meta",
    "visible"
  ],
  "plugs": [
    {
      "name": "body",
      "ord": 5,
      "slot_type": "placement",
      "value": 4
    }
  ],
  "slices": null,
  "triggers": [
    {
      "conditions": [
        {
          "amount": 0,
          "arg": "TARGET",
          "label": "unknown",
          "tags": [
            "send_call_on_failure"
          ],
          "query_name": "all_in_parent_but",
          "test_name": "has_class",
          "write": "analyze"
        }
      ],
      "label": "unknown",
      "tags": [
        "analyze"
      ],
      "task": "look_at"
    }
  ]
}
