{
  "id": "climate",
  "type": "meta",
  "classes": [],
  "tags": [
    "meta"
  ],
  "attributes": {
    "sun_height": 0.0,
    "moon_height": 0.0,
    "moon_phase": 0.0
  },
  "slices": null,
  "triggers": [
    {
      "conditions": [
        {
          "amount": 0,
          "arg": "it_looks",
          "label": "THOSE_AROUND_WHO_LOOK_AT_THE_SUN",
          "query_name": "all_in_self_recursive_if_open",
          "tags": [],
          "test_name": "has_tag",
          "value": 0.0,
          "write": "it_looks"
        }
      ],
      "label": "SUN_HEIGHT_CROSSES_BOUNDARY",
      "tags": [
        "listens_sun_height"
      ],
      "task": "listen_sun_height"
    },
    {
      "conditions": [
        {
          "amount": 0,
          "arg": "it_looks",
          "label": "THOSE_AROUND_WHO_LOOK_AT_THE_MOON",
          "query_name": "all_in_self_recursive_if_open",
          "test_name": "has_tag",
          "write": "it_looks"
        }
      ],
      "label": "MOON_HEIGHT_CROSSES_BOUNDARY",
      "tags": [
        "listens_moon_height"
      ],
      "task": "listen_moon_height"
    },
    {
      "conditions": [
        {
          "amount": 0,
          "arg": "it_looks",
          "label": "THOSE_AROUND_WHO_WAIT FOR_THE_MOON",
          "query_name": "all_in_self_recursive_if_open",
          "test_name": "has_tag",
          "write": "it_looks"
        }
      ],
      "label": "MOON_HEIGHT_CROSSES_BOUNDARY",
      "tags": [
        "listens_moon_phase"
      ],
      "task": "listen_moon_phase"
    }
  ]
}
