{
  "id": "female",
  "type": "gender",
  "classes": [],
  "tags": [
    "character",
    "visible",
    "allows_human",
    "allows_warrior",
    "allows_craftsman"
  ],
  "slices": null,
  "triggers": [
    {
      "conditions": [
        {
          "amount": 0,
          "arg": "enhances_constitution",
          "label": "TAGGED",
          "tags": [
            "force_success",
            "write_value"
          ],
          "value": 8,
          "write": "delta"
        }
      ],
      "label": "enhances_constitution",
      "tags": [
        "is_modifier",
        "modifies_constitution"
      ]
    },
    {
      "conditions": [
        {
          "amount": 0,
          "arg": "enhances_charisma",
          "label": "TAGGED",
          "tags": [
            "force_success",
            "write_value"
          ],
          "value": 14,
          "write": "delta"
        }
      ],
      "label": "enhances_charisma",
      "tags": [
        "is_modifier",
        "modifies_charisma"
      ]
    }
  ]
}
