{
  "id": "hut",
  "type": "class",
  "classes": [
    "place"
  ],
  "tags": [
    "terrain",
    "connected_to_parent"
  ],
  "attributes": {
    "integrity": 100
  },
  "plugs": [
    {
      "name": "body",
      "ord": 1,
      "slot_type": "placement",
      "value": 18
    }
  ],
  "slots": [
    {
      "closure": 84,
      "element": "ambient",
      "name": "floor",
      "ord": 1,
      "slot_type": "placement",
      "value": -1
    },
    {
      "closure": 84,
      "element": "ambient",
      "name": "litter",
      "ord": 2,
      "slot_type": "placement",
      "value": -1
    }
  ],
  "triggers": [
    {
      "conditions": [
        {
          "label": "test_message",
          "tags": [
            "write_value"
          ],
          "value": 42,
          "write": "the_answer_is"
        }
      ],
      "label": "UPDATE_HUT",
      "tags": [
        "on_update"
      ]
    },
    {
      "conditions": [
        {
          "amount": 1,
          "arg": "visibility",
          "label": "is_enough_visibility",
          "query_name": "self",
          "tags": [
            "abort_on_failure",
            "send_call_on_failure"
          ],
          "test_name": "has_attribute_gt",
          "value": 45,
          "write": "visibility"
        },
        {
          "amount": 4,
          "arg": "boulder",
          "label": "NEED_4_BOULDERS_CUZ_WE_ARE_TESTING",
          "query_name": "all_available_but",
          "tags": [
            "abort_on_failure",
            "send_call_on_failure"
          ],
          "test_name": "has_class",
          "write": "materials"
        },
        {
          "label": "MAKE_NOISE",
          "tags": [
            "write_value"
          ],
          "value": 3,
          "write": "noise"
        },
        {
          "label": "MAKE_PHYSICAL_WORK",
          "tags": [
            "write_value"
          ],
          "value": 12,
          "write": "physical_work"
        }
      ],
      "label": "BUILD_A_HUT",
      "tags": [
        "build"
      ],
      "task": "build_object"
    }
  ]
}
