{
  "id": "sandstone_flake",
  "type": "class",
  "classes": [
    "rock"
  ],
  "tags": [
    "requires_lithic_reduction",
    "obtained_from_sandstone_rock",
    "use_as_material",
    "use_as_component",
    "stone_flake"
  ],
  "attributes": {
    "resource_scarcity": 4
  },
  "slices": [
    {
      "element": "sandstone",
      "mass": 0.0,
      "name": "body"
    }
  ]
}
