{
  "id": "stone_knife",
  "type": "class",
  "classes": [
    "rock"
  ],
  "tags": [
    "requires_lithic_reduction",
    "use_as_weapon",
    "use_as_tool",
    "weapon",
    "knife"
  ],
  "attributes": {
    "integrity": 100
  },
  "triggers": [
    {
      "conditions": [
        {
          "amount": 1,
          "arg": "lithic_reduction",
          "label": "need_knowledge",
          "query_name": "self_knowledge",
          "tags": [
            "abort_on_failure",
            "send_call_on_failure"
          ],
          "test_name": "has_tag",
          "write": "knowledge"
        },
        {
          "amount": 1,
          "arg": "stone_blade",
          "label": "needed_materials",
          "query_name": "all_available_but",
          "tags": [
            "reserve",
            "abort_on_failure",
            "send_call_on_failure"
          ],
          "test_name": "has_tag",
          "write": "components"
        },
        {
          "amount": 1,
          "arg": "hammerstone",
          "label": "needed_tool",
          "query_name": "all_available_but",
          "tags": [
            "reserve",
            "abort_on_failure",
            "send_call_on_failure"
          ],
          "test_name": "has_tag",
          "write": "tools"
        },
        {
          "amount": 1,
          "arg": "quern",
          "label": "needed_quern",
          "query_name": "all_available_but",
          "tags": [
            "reserve",
            "abort_on_failure",
            "send_call_on_failure"
          ],
          "test_name": "has_tag",
          "write": "tools"
        },
        {
          "amount": 1,
          "arg": "visibility",
          "label": "is_enough_visibility",
          "query_name": "self",
          "tags": [
            "send_call_on_failure"
          ],
          "test_name": "has_attribute_gt",
          "value": 55,
          "write": "light"
        },
        {
          "label": "noisy",
          "tags": [
            "write_value"
          ],
          "value": 2,
          "write": "noise"
        },
        {
          "label": "it_gets_physical",
          "tags": [
            "write_value"
          ],
          "value": 4,
          "write": "physical_work"
        }
      ],
      "label": "making_a_stone_knife",
      "tags": [
        "build"
      ],
      "task": "build_object"
    }
  ]
}
