{
  "id": "palm",
  "type": "element",
  "classes": [
    "wood"
  ],
  "tags": [],
  "attributes": {
    "constitution": 43,
    "specific_mass": 0.0,
    "strength": 38
  },
  "slices": null,
  "triggers": null
}
