{
  "id": "wood",
  "type": "element",
  "classes": [],
  "tags": [
    "element",
    "solid",
    "organic",
    "resource"
  ],
  "attributes": {
    "absorption_coefficient": 12,
    "heat_coefficient": 4,
    "specific_mass": 1
  },
  "slices": null,
  "triggers": [
    {
      "conditions": [
        {
          "arg": "gather",
          "label": "undef",
          "query_name": "self",
          "tags": [
            "write_arg"
          ],
          "test_name": "always",
          "write": "action"
        },
        {
          "amount": 1,
          "arg": "provides_wood",
          "label": "undef",
          "query_name": "parent",
          "tags": [],
          "test_name": "has_tag",
          "value": 0.0,
          "write": "source"
        },
        {
          "label": "get_noisy",
          "tags": [
            "write_value"
          ],
          "value": 2,
          "write": "noise"
        },
        {
          "label": "get_physical",
          "tags": [
            "write_value"
          ],
          "value": 7,
          "write": "physical_work"
        }
      ],
      "label": "gather_wood",
      "tags": [
        "gather"
      ],
      "task": "extract_resource"
    },
    {
      "conditions": [
        {
          "amount": 1,
          "arg": "provides_wood",
          "label": "undef",
          "query_name": "parent",
          "tags": [],
          "test_name": "has_tag",
          "write": "source"
        },
        {
          "amount": 1,
          "arg": "axe_tool",
          "label": "needed_tool",
          "query_name": "wielding",
          "tags": [],
          "test_name": "has_tag",
          "write": "tools"
        },
        {
          "arg": "undef",
          "label": "get_noisy",
          "query_name": "self",
          "tags": [
            "write_value"
          ],
          "test_name": "always",
          "value": 5,
          "write": "noise"
        },
        {
          "arg": "undef",
          "label": "get_physical",
          "tags": [
            "write_value"
          ],
          "value": 18,
          "write": "physical_work"
        }
      ],
      "label": "cut_wood",
      "tags": [
        "cut"
      ],
      "task": "extract_resource"
    }
  ]
}
